{
  "development": {
    "username": "root",
    "password": "",
    "database": "yhoc_vowel",
    "host": "localhost",
    "dialect": "mysql",
    "freeTableName": true,
    "underscored": true,
    "charset": "utf8mb4",
    "collate": "utf8mb4_general_ci",
    "port": 3306,
    "mongoUrl": "mongodb+srv://yhoc_vowel:toimuontotnghiep@yhoc-vowel.n9muy.mongodb.net/yhoc-vowel?retryWrites=true&w=majority"
  },
  "production": {
    "username": "yhoc_vowel",
    "password": "toimuontotnghiep",
    "database": "yhoc_vowel",
    "host": "127.0.0.1",
    "dialect": "mysql",
    "freeTableName": true,
    "underscored": true,
    "charset": "utf8mb4",
    "collate": "utf8mb4_general_ci",
    "port": 3306,
    "mongoUrl": "mongodb+srv://yhoc_vowel:toimuontotnghiep@yhoc-vowel.n9muy.mongodb.net/yhoc-vowel?retryWrites=true&w=majority"
  }
}
